<?xml version="1.0" encoding="UTF-8"?>
<glyph name="d" format="1">
  <advance width="930"/>
  <unicode hex="0064"/>
  <outline>
    <contour>
      <point x="143" y="725" type="line"/>
      <point x="637" y="725" type="line"/>
      <point x="637" y="750" type="line"/>
      <point x="143" y="750" type="line"/>
    </contour>
    <contour>
      <point x="441" y="7" type="curve"/>
      <point x="296" y="7"/>
      <point x="255" y="78"/>
      <point x="255" y="329" type="curve" smooth="yes"/>
      <point x="255" y="587"/>
      <point x="289" y="644"/>
      <point x="440" y="644" type="curve" smooth="yes"/>
      <point x="542" y="644"/>
      <point x="624" y="605"/>
      <point x="624" y="457" type="curve" smooth="yes"/>
      <point x="624" y="242" type="line" smooth="yes"/>
      <point x="624" y="108"/>
      <point x="591" y="7"/>
    </contour>
    <contour>
      <point x="626" y="93" type="line"/>
      <point x="626" y="-2"/>
      <point x="675" y="-20"/>
      <point x="758" y="-20" type="curve" smooth="yes"/>
      <point x="830" y="-20"/>
      <point x="847" y="12"/>
      <point x="847" y="118" type="curve" smooth="yes"/>
      <point x="847" y="194" type="line"/>
      <point x="822" y="194" type="line"/>
      <point x="822" y="120" type="line" smooth="yes"/>
      <point x="822" y="45"/>
      <point x="815" y="18"/>
      <point x="785" y="18" type="curve" smooth="yes"/>
      <point x="762" y="18"/>
      <point x="752" y="33"/>
      <point x="752" y="98" type="curve" smooth="yes"/>
      <point x="752" y="725" type="line"/>
      <point x="855" y="725" type="line"/>
      <point x="855" y="750" type="line"/>
      <point x="624" y="750" type="line"/>
      <point x="624" y="577" type="line"/>
      <point x="614" y="607"/>
      <point x="568" y="671"/>
      <point x="442" y="671" type="curve" smooth="yes"/>
      <point x="223" y="671"/>
      <point x="115" y="548"/>
      <point x="115" y="326" type="curve" smooth="yes"/>
      <point x="115" y="104"/>
      <point x="223" y="-20"/>
      <point x="442" y="-20" type="curve" smooth="yes"/>
      <point x="534" y="-20"/>
      <point x="595" y="20"/>
      <point x="629" y="94" type="curve"/>
    </contour>
  </outline>
  <lib>
    <dict>
      <key>com.typemytype.robofont.guides</key>
      <array>
      </array>
      <key>com.typemytype.robofont.layerData</key>
      <dict>
        <key>background</key>
        <dict>
          <key>anchors</key>
          <array>
          </array>
          <key>components</key>
          <array>
          </array>
          <key>contours</key>
          <array>
            <dict>
              <key>points</key>
              <array>
                <dict>
                  <key>segmentType</key>
                  <string>curve</string>
                  <key>smooth</key>
                  <false/>
                  <key>x</key>
                  <integer>456</integer>
                  <key>y</key>
                  <integer>8</integer>
                </dict>
                <dict>
                  <key>smooth</key>
                  <false/>
                  <key>x</key>
                  <integer>313</integer>
                  <key>y</key>
                  <integer>8</integer>
                </dict>
                <dict>
                  <key>smooth</key>
                  <false/>
                  <key>x</key>
                  <integer>290</integer>
                  <key>y</key>
                  <integer>98</integer>
                </dict>
                <dict>
                  <key>segmentType</key>
                  <string>curve</string>
                  <key>smooth</key>
                  <false/>
                  <key>x</key>
                  <integer>290</integer>
                  <key>y</key>
                  <integer>355</integer>
                </dict>
                <dict>
                  <key>smooth</key>
                  <false/>
                  <key>x</key>
                  <integer>290</integer>
                  <key>y</key>
                  <integer>543</integer>
                </dict>
                <dict>
                  <key>smooth</key>
                  <false/>
                  <key>x</key>
                  <integer>288</integer>
                  <key>y</key>
                  <integer>674</integer>
                </dict>
                <dict>
                  <key>segmentType</key>
                  <string>curve</string>
                  <key>smooth</key>
                  <true/>
                  <key>x</key>
                  <integer>455</integer>
                  <key>y</key>
                  <integer>674</integer>
                </dict>
                <dict>
                  <key>smooth</key>
                  <false/>
                  <key>x</key>
                  <integer>568</integer>
                  <key>y</key>
                  <integer>674</integer>
                </dict>
                <dict>
                  <key>smooth</key>
                  <false/>
                  <key>x</key>
                  <integer>650</integer>
                  <key>y</key>
                  <integer>635</integer>
                </dict>
                <dict>
                  <key>segmentType</key>
                  <string>curve</string>
                  <key>smooth</key>
                  <false/>
                  <key>x</key>
                  <integer>658</integer>
                  <key>y</key>
                  <integer>487</integer>
                </dict>
                <dict>
                  <key>smooth</key>
                  <false/>
                  <key>x</key>
                  <integer>658</integer>
                  <key>y</key>
                  <integer>435</integer>
                </dict>
                <dict>
                  <key>smooth</key>
                  <false/>
                  <key>x</key>
                  <integer>657</integer>
                  <key>y</key>
                  <integer>352</integer>
                </dict>
                <dict>
                  <key>segmentType</key>
                  <string>curve</string>
                  <key>smooth</key>
                  <false/>
                  <key>x</key>
                  <integer>657</integer>
                  <key>y</key>
                  <integer>301</integer>
                </dict>
                <dict>
                  <key>smooth</key>
                  <false/>
                  <key>x</key>
                  <integer>657</integer>
                  <key>y</key>
                  <integer>108</integer>
                </dict>
                <dict>
                  <key>smooth</key>
                  <false/>
                  <key>x</key>
                  <integer>621</integer>
                  <key>y</key>
                  <integer>8</integer>
                </dict>
              </array>
            </dict>
            <dict>
              <key>points</key>
              <array>
                <dict>
                  <key>segmentType</key>
                  <string>curve</string>
                  <key>smooth</key>
                  <true/>
                  <key>x</key>
                  <integer>899</integer>
                  <key>y</key>
                  <integer>119</integer>
                </dict>
                <dict>
                  <key>segmentType</key>
                  <string>line</string>
                  <key>smooth</key>
                  <false/>
                  <key>x</key>
                  <integer>899</integer>
                  <key>y</key>
                  <integer>195</integer>
                </dict>
                <dict>
                  <key>segmentType</key>
                  <string>line</string>
                  <key>smooth</key>
                  <false/>
                  <key>x</key>
                  <integer>868</integer>
                  <key>y</key>
                  <integer>195</integer>
                </dict>
                <dict>
                  <key>segmentType</key>
                  <string>line</string>
                  <key>smooth</key>
                  <true/>
                  <key>x</key>
                  <integer>868</integer>
                  <key>y</key>
                  <integer>121</integer>
                </dict>
                <dict>
                  <key>smooth</key>
                  <false/>
                  <key>x</key>
                  <integer>868</integer>
                  <key>y</key>
                  <integer>45</integer>
                </dict>
                <dict>
                  <key>smooth</key>
                  <false/>
                  <key>x</key>
                  <integer>860</integer>
                  <key>y</key>
                  <integer>18</integer>
                </dict>
                <dict>
                  <key>segmentType</key>
                  <string>curve</string>
                  <key>smooth</key>
                  <true/>
                  <key>x</key>
                  <integer>825</integer>
                  <key>y</key>
                  <integer>18</integer>
                </dict>
                <dict>
                  <key>smooth</key>
                  <false/>
                  <key>x</key>
                  <integer>798</integer>
                  <key>y</key>
                  <integer>18</integer>
                </dict>
                <dict>
                  <key>smooth</key>
                  <false/>
                  <key>x</key>
                  <integer>784</integer>
                  <key>y</key>
                  <integer>53</integer>
                </dict>
                <dict>
                  <key>segmentType</key>
                  <string>curve</string>
                  <key>smooth</key>
                  <false/>
                  <key>x</key>
                  <integer>784</integer>
                  <key>y</key>
                  <integer>119</integer>
                </dict>
                <dict>
                  <key>segmentType</key>
                  <string>line</string>
                  <key>smooth</key>
                  <false/>
                  <key>x</key>
                  <integer>784</integer>
                  <key>y</key>
                  <integer>733</integer>
                </dict>
                <dict>
                  <key>segmentType</key>
                  <string>line</string>
                  <key>smooth</key>
                  <false/>
                  <key>x</key>
                  <integer>878</integer>
                  <key>y</key>
                  <integer>733</integer>
                </dict>
                <dict>
                  <key>segmentType</key>
                  <string>line</string>
                  <key>smooth</key>
                  <false/>
                  <key>x</key>
                  <integer>878</integer>
                  <key>y</key>
                  <integer>760</integer>
                </dict>
                <dict>
                  <key>segmentType</key>
                  <string>line</string>
                  <key>smooth</key>
                  <false/>
                  <key>x</key>
                  <integer>658</integer>
                  <key>y</key>
                  <integer>760</integer>
                </dict>
                <dict>
                  <key>segmentType</key>
                  <string>line</string>
                  <key>smooth</key>
                  <false/>
                  <key>x</key>
                  <integer>658</integer>
                  <key>y</key>
                  <integer>607</integer>
                </dict>
                <dict>
                  <key>smooth</key>
                  <false/>
                  <key>x</key>
                  <integer>648</integer>
                  <key>y</key>
                  <integer>637</integer>
                </dict>
                <dict>
                  <key>smooth</key>
                  <false/>
                  <key>x</key>
                  <integer>596</integer>
                  <key>y</key>
                  <integer>701</integer>
                </dict>
                <dict>
                  <key>segmentType</key>
                  <string>curve</string>
                  <key>smooth</key>
                  <true/>
                  <key>x</key>
                  <integer>457</integer>
                  <key>y</key>
                  <integer>701</integer>
                </dict>
                <dict>
                  <key>smooth</key>
                  <false/>
                  <key>x</key>
                  <integer>141</integer>
                  <key>y</key>
                  <integer>701</integer>
                </dict>
                <dict>
                  <key>smooth</key>
                  <false/>
                  <key>x</key>
                  <integer>130</integer>
                  <key>y</key>
                  <integer>413</integer>
                </dict>
                <dict>
                  <key>segmentType</key>
                  <string>curve</string>
                  <key>smooth</key>
                  <false/>
                  <key>x</key>
                  <integer>130</integer>
                  <key>y</key>
                  <integer>350</integer>
                </dict>
                <dict>
                  <key>smooth</key>
                  <false/>
                  <key>x</key>
                  <integer>130</integer>
                  <key>y</key>
                  <integer>240</integer>
                </dict>
                <dict>
                  <key>smooth</key>
                  <false/>
                  <key>x</key>
                  <integer>127</integer>
                  <key>y</key>
                  <integer>-22</integer>
                </dict>
                <dict>
                  <key>segmentType</key>
                  <string>curve</string>
                  <key>smooth</key>
                  <true/>
                  <key>x</key>
                  <integer>457</integer>
                  <key>y</key>
                  <integer>-19</integer>
                </dict>
                <dict>
                  <key>smooth</key>
                  <false/>
                  <key>x</key>
                  <integer>558</integer>
                  <key>y</key>
                  <integer>-18</integer>
                </dict>
                <dict>
                  <key>smooth</key>
                  <false/>
                  <key>x</key>
                  <integer>624</integer>
                  <key>y</key>
                  <integer>7</integer>
                </dict>
                <dict>
                  <key>segmentType</key>
                  <string>curve</string>
                  <key>smooth</key>
                  <false/>
                  <key>x</key>
                  <integer>658</integer>
                  <key>y</key>
                  <integer>93</integer>
                </dict>
                <dict>
                  <key>smooth</key>
                  <false/>
                  <key>x</key>
                  <integer>658</integer>
                  <key>y</key>
                  <integer>93</integer>
                </dict>
                <dict>
                  <key>smooth</key>
                  <false/>
                  <key>x</key>
                  <integer>658</integer>
                  <key>y</key>
                  <integer>74</integer>
                </dict>
                <dict>
                  <key>segmentType</key>
                  <string>curve</string>
                  <key>smooth</key>
                  <false/>
                  <key>x</key>
                  <integer>658</integer>
                  <key>y</key>
                  <integer>74</integer>
                </dict>
                <dict>
                  <key>smooth</key>
                  <false/>
                  <key>x</key>
                  <integer>665</integer>
                  <key>y</key>
                  <integer>-2</integer>
                </dict>
                <dict>
                  <key>smooth</key>
                  <false/>
                  <key>x</key>
                  <integer>707</integer>
                  <key>y</key>
                  <integer>-20</integer>
                </dict>
                <dict>
                  <key>segmentType</key>
                  <string>curve</string>
                  <key>smooth</key>
                  <true/>
                  <key>x</key>
                  <integer>790</integer>
                  <key>y</key>
                  <integer>-20</integer>
                </dict>
                <dict>
                  <key>smooth</key>
                  <false/>
                  <key>x</key>
                  <integer>878</integer>
                  <key>y</key>
                  <integer>-20</integer>
                </dict>
                <dict>
                  <key>smooth</key>
                  <false/>
                  <key>x</key>
                  <integer>899</integer>
                  <key>y</key>
                  <integer>12</integer>
                </dict>
              </array>
            </dict>
            <dict>
              <key>points</key>
              <array>
                <dict>
                  <key>segmentType</key>
                  <string>move</string>
                  <key>smooth</key>
                  <false/>
                  <key>x</key>
                  <integer>144</integer>
                  <key>y</key>
                  <integer>733</integer>
                </dict>
                <dict>
                  <key>segmentType</key>
                  <string>line</string>
                  <key>smooth</key>
                  <false/>
                  <key>x</key>
                  <integer>688</integer>
                  <key>y</key>
                  <integer>733</integer>
                </dict>
                <dict>
                  <key>segmentType</key>
                  <string>line</string>
                  <key>smooth</key>
                  <false/>
                  <key>x</key>
                  <integer>688</integer>
                  <key>y</key>
                  <integer>760</integer>
                </dict>
                <dict>
                  <key>segmentType</key>
                  <string>line</string>
                  <key>smooth</key>
                  <false/>
                  <key>x</key>
                  <integer>144</integer>
                  <key>y</key>
                  <integer>760</integer>
                </dict>
              </array>
            </dict>
          </array>
          <key>lib</key>
          <dict>
          </dict>
          <key>name</key>
          <string>d</string>
          <key>unicodes</key>
          <array>
          </array>
          <key>width</key>
          <integer>930</integer>
        </dict>
      </dict>
      <key>com.typemytype.robofont.mark</key>
      <array>
        <real>1.0</real>
        <real>0.0</real>
        <real>0.0</real>
        <real>0.5</real>
      </array>
    </dict>
  </lib>
</glyph>
