<?xml version="1.0" encoding="UTF-8"?>
<glyph name="o" format="1">
  <advance width="930"/>
  <unicode hex="006F"/>
  <outline>
    <component base="O"/>
    <contour>
      <point x="477" y="750" type="move" name="top"/>
    </contour>
  </outline>
  <lib>
    <dict>
      <key>com.typemytype.robofont.layerData</key>
      <dict>
        <key>background</key>
        <dict>
          <key>anchors</key>
          <array>
          </array>
          <key>components</key>
          <array>
            <dict>
              <key>baseGlyph</key>
              <string>O</string>
              <key>transformation</key>
              <array>
                <integer>1</integer>
                <integer>0</integer>
                <integer>0</integer>
                <integer>1</integer>
                <integer>20</integer>
                <integer>0</integer>
              </array>
            </dict>
          </array>
          <key>contours</key>
          <array>
          </array>
          <key>lib</key>
          <dict>
            <key>com.typemytype.robofont.layerData</key>
            <dict>
            </dict>
          </dict>
          <key>name</key>
          <string>o</string>
          <key>unicodes</key>
          <array>
          </array>
          <key>width</key>
          <integer>930</integer>
        </dict>
      </dict>
    </dict>
  </lib>
</glyph>
